%YAML 1.1
%TAG !u! tag:unity3d.com,2011:
--- !u!78 &1
TagManager:
  serializedVersion: 2
  tags:
  - ITEM
  - WEAPON
  - EFFECT
  - MAP
  - BULLET
  - FIST
  - GROUND
  layers:
  - Default
  - TransparentFX
  - Ignore Raycast
  - 
  - Water
  - UI
  - 
  - 
  - 
  - 
  - GameObject
  - 
  - 
  - 
  - 
  - 
  - 
  - 
  - 
  - 
  - 
  - 
  - 
  - 
  - 
  - 
  - 
  - 
  - 
  - 
  - 
  - TextureRender
  m_SortingLayers:
  - name: Default
    uniqueID: 0
    locked: 0
  - name: UI
    uniqueID: 635499659
    locked: 0
  - name: GameObject
    uniqueID: 2186259441
    locked: 0
