%YAML 1.1
%TAG !u! tag:unity3d.com,2011:
--- !u!114 &-4321619813945176072
MonoBehaviour:
  m_ObjectHideFlags: 11
  m_CorrespondingSourceObject: {fileID: 0}
  m_PrefabInstance: {fileID: 0}
  m_PrefabAsset: {fileID: 0}
  m_GameObject: {fileID: 0}
  m_Enabled: 1
  m_EditorHideFlags: 0
  m_Script: {fileID: 11500000, guid: d0353a89b1f911e48b9e16bdc9f2e058, type: 3}
  m_Name: 
  m_EditorClassIdentifier: 
  version: 1
--- !u!21 &2100000
Material:
  serializedVersion: 6
  m_ObjectHideFlags: 0
  m_CorrespondingSourceObject: {fileID: 0}
  m_PrefabInstance: {fileID: 0}
  m_PrefabAsset: {fileID: 0}
  m_Name: PoolScene_Water_01
  m_Shader: {fileID: 4800000, guid: efcaf526ceb1f4efd9eb4e4c30c6ade6, type: 3}
  m_ShaderKeywords: _ALLOWALPHAOVERFLOW_OFF _COLORMODE_LINEAR _FOAMMODE_GRADIENT_NOISE
    _WAVEMODE_ROUND
  m_LightmapFlags: 4
  m_EnableInstancingVariants: 0
  m_DoubleSidedGI: 0
  m_CustomRenderQueue: -1
  stringTagMap: {}
  disabledShaderPasses: []
  m_SavedProperties:
    serializedVersion: 3
    m_TexEnvs:
    - _BaseMap:
        m_Texture: {fileID: 0}
        m_Scale: {x: 1, y: 1}
        m_Offset: {x: 0, y: 0}
    - _BumpMap:
        m_Texture: {fileID: 0}
        m_Scale: {x: 1, y: 1}
        m_Offset: {x: 0, y: 0}
    - _ColorGradient:
        m_Texture: {fileID: 0}
        m_Scale: {x: 1, y: 1}
        m_Offset: {x: 0, y: 0}
    - _EmissionMap:
        m_Texture: {fileID: 0}
        m_Scale: {x: 1, y: 1}
        m_Offset: {x: 0, y: 0}
    - _MainTex:
        m_Texture: {fileID: 0}
        m_Scale: {x: 1, y: 1}
        m_Offset: {x: 0, y: 0}
    - _MetallicGlossMap:
        m_Texture: {fileID: 0}
        m_Scale: {x: 1, y: 1}
        m_Offset: {x: 0, y: 0}
    - _NoiseMap:
        m_Texture: {fileID: 2800000, guid: 062db1959aabc4afb95dd37cf1c09dd6, type: 3}
        m_Scale: {x: 1, y: 1}
        m_Offset: {x: 0, y: 0}
    - _OcclusionMap:
        m_Texture: {fileID: 0}
        m_Scale: {x: 1, y: 1}
        m_Offset: {x: 0, y: 0}
    - _SpecGlossMap:
        m_Texture: {fileID: 0}
        m_Scale: {x: 1, y: 1}
        m_Offset: {x: 0, y: 0}
    m_Ints: []
    m_Floats:
    - _AllowAlphaOverflow: 0
    - _AlphaClip: 0
    - _Amount: 1
    - _Amplitude: 0.51
    - _Blend: 0
    - _BumpScale: 1
    - _CameraDistanceFadeClose: 0
    - _CameraDistanceFadeFar: 10
    - _ColorMode: 0
    - _CrestSharpness: 0.16
    - _CrestSize: 0.083
    - _Cull: 2
    - _Cutoff: 0.5
    - _Depth: 100
    - _DstBlend: 0
    - _EnvironmentReflections: 1
    - _FadeDistance: 0.27
    - _FoamAmount: 0.17
    - _FoamDepth: 0.28
    - _FoamDirection: 0
    - _FoamFromTexture: 1
    - _FoamMode: 1
    - _FoamNoiseAmount: 0.665
    - _FoamProcedural: 1
    - _FoamScale: 0.402
    - _FoamSharpness: 0.424
    - _FoamSpeed: 0.5
    - _FoamStretchX: 1
    - _FoamStretchY: 1
    - _FoamTexture: 1
    - _Frequency: 0.08
    - _GlossMapScale: 0
    - _Glossiness: 0
    - _GlossyReflections: 0
    - _Metallic: 0
    - _OcclusionStrength: 1
    - _ProceduralFoam: 1
    - _QueueOffset: 0
    - _ReceiveShadows: 1
    - _RefractionAmplitude: 0.01
    - _RefractionFrequency: 6.65
    - _RefractionScale: 0.23
    - _RefractionSpeed: 0.5
    - _RefractionStrength: 0.01
    - _ShadowStrength: 0.25
    - _Smoothness: 0.5
    - _SmoothnessTextureChannel: 0
    - _SpecularHighlights: 1
    - _SpecularPower: 2.06
    - _SpecularStrength: 0.11
    - _Speed: 0.3
    - _SrcBlend: 1
    - _Surface: 0
    - _UvFadeX: 0.1
    - _UvFadeY: 0.1
    - _WaterClearness: 0
    - _WaterDepth: 9.54
    - _WaveAmplitude: 0.14
    - _WaveDirection: 0
    - _WaveFrequency: 25
    - _WaveMode: 1
    - _WaveNoise: 0.01
    - _WaveSpeed: 0.39
    - _WorkflowMode: 1
    - _ZWrite: 1
    m_Colors:
    - _BaseColor: {r: 1, g: 1, b: 1, a: 1}
    - _Color: {r: 0, g: 1, b: 0.7287984, a: 1}
    - _ColorDeep: {r: 0.6367924, g: 0.8860948, b: 1, a: 1}
    - _ColorShallow: {r: 0.34531862, g: 0.59734017, b: 0.75471693, a: 1}
    - _ColorTop: {r: 1, g: 1, b: 1, a: 0.34117648}
    - _CrestColor: {r: 1, g: 1, b: 1, a: 0.9}
    - _EmissionColor: {r: 0, g: 0, b: 0, a: 1}
    - _FoamColor: {r: 0.9975696, g: 1, b: 0.9575471, a: 1}
    - _FoamStretch: {r: 1, g: 1, b: 1, a: 1}
    - _SpecColor: {r: 0.19999996, g: 0.19999996, b: 0.19999996, a: 1}
    - _SpecularColor: {r: 1, g: 1, b: 1, a: 1}
  m_BuildTextureStacks: []
